<?xml version="1.0" encoding="utf-8"?>
<!-- Generator: Adobe Illustrator 16.0.0, SVG Export Plug-In . SVG Version: 6.00 Build 0)  -->
<!DOCTYPE svg PUBLIC "-//W3C//DTD SVG 1.1//EN" "http://www.w3.org/Graphics/SVG/1.1/DTD/svg11.dtd">
<svg version="1.1" id="Layer_1" xmlns="http://www.w3.org/2000/svg" xmlns:xlink="http://www.w3.org/1999/xlink" x="0px" y="0px"
	 width="33px" height="46px" viewBox="0 0 33 46" enable-background="new 0 0 33 46" xml:space="preserve">
<path opacity="0.5" fill="#FFFFFF" enable-background="new    " d="M25.787,3.042c0.289-0.287,0.648-0.432,1.045-0.432
	s0.755,0.145,1.043,0.432c0.576,0.576,0.576,1.512,0,2.087L9.523,23.481l18.352,18.35c0.576,0.576,0.576,1.513,0,2.087
	c-0.574,0.576-1.512,0.576-2.088,0L6.395,24.523c-0.576-0.574-0.576-1.511,0-2.086L25.787,3.042z"/>
</svg>
