<?xml version="1.0" encoding="utf-8"?>
<!-- Generator: Adobe Illustrator 16.0.0, SVG Export Plug-In . SVG Version: 6.00 Build 0)  -->
<!DOCTYPE svg PUBLIC "-//W3C//DTD SVG 1.1//EN" "http://www.w3.org/Graphics/SVG/1.1/DTD/svg11.dtd">
<svg version="1.1" id="Layer_1" xmlns="http://www.w3.org/2000/svg" xmlns:xlink="http://www.w3.org/1999/xlink" x="0px" y="0px"
	 width="33px" height="46px" viewBox="0 0 33 46" enable-background="new 0 0 33 46" xml:space="preserve">
<path opacity="0.5" fill="#FFFFFF" enable-background="new    " d="M8.482,43.919c-0.289,0.287-0.649,0.433-1.044,0.433
	c-0.396,0-0.755-0.146-1.043-0.433c-0.576-0.576-0.576-1.512,0-2.087l18.352-18.353L6.394,5.13c-0.576-0.577-0.576-1.513,0-2.087
	c0.575-0.576,1.511-0.576,2.088,0l19.393,19.394c0.576,0.576,0.576,1.512,0,2.086L8.482,43.919z"/>
</svg>
