<?xml version="1.0" encoding="utf-8"?>
<!-- Generator: Adobe Illustrator 16.0.0, SVG Export Plug-In . SVG Version: 6.00 Build 0)  -->
<!DOCTYPE svg PUBLIC "-//W3C//DTD SVG 1.1//EN" "http://www.w3.org/Graphics/SVG/1.1/DTD/svg11.dtd">
<svg version="1.1" id="Layer_1" xmlns="http://www.w3.org/2000/svg" xmlns:xlink="http://www.w3.org/1999/xlink" x="0px" y="0px"
	 width="75px" height="70px" viewBox="0 0 75 70" enable-background="new 0 0 75 70" xml:space="preserve">
<g>
	<g>
		<path opacity="0.1" d="M30.367,26.575c0,0.651-0.528,1.178-1.179,1.178H18.5c-0.652,0-1.179-0.527-1.179-1.178l0,0
			c0-0.651,0.526-1.179,1.179-1.179h10.688C29.839,25.396,30.367,25.924,30.367,26.575L30.367,26.575z"/>
		<path opacity="0.1" d="M60.491,43.543c0,0.653-0.527,1.181-1.178,1.181h-10.69c-0.65,0-1.178-0.527-1.178-1.181l0,0
			c0-0.65,0.527-1.178,1.178-1.178h10.69C59.964,42.365,60.491,42.893,60.491,43.543L60.491,43.543z"/>
		<path opacity="0.1" d="M60.491,32.957c0,0.651-0.527,1.181-1.178,1.181H18.5c-0.652,0-1.179-0.529-1.179-1.181l0,0
			c0-0.649,0.526-1.178,1.179-1.178h40.813C59.964,31.779,60.491,32.308,60.491,32.957L60.491,32.957z"/>
		<path opacity="0.1" d="M60.491,37.532c0,0.651-0.527,1.179-1.178,1.179H18.5c-0.652,0-1.179-0.527-1.179-1.179l0,0
			c0-0.651,0.526-1.179,1.179-1.179h40.813C59.964,36.354,60.491,36.881,60.491,37.532L60.491,37.532z"/>
		<g>
			<path fill="#1F7ABF" d="M48.795,4.347c-0.129,0.792-0.2,1.611-0.209,2.457l-0.032,2.681l-0.16,0.161h-1.011L47.205,9.5
				c-0.054-1.37-0.112-2.172-0.177-2.409C46.9,6.665,46.558,6.413,46,6.338c-0.214-0.032-1.219-0.049-3.016-0.049h-2.15
				c-0.024,0.375-0.033,1.862-0.033,4.463v9.117c0,2.547,0.07,4.206,0.209,4.976c0.053,0.311,0.235,0.509,0.546,0.595
				c0.159,0.042,0.786,0.096,1.877,0.16l0.16,0.161v1.076l-0.16,0.16c-1.059-0.065-2.708-0.096-4.943-0.096
				c-2.29,0-3.938,0.031-4.944,0.096L33.4,26.853v-1.091l0.161-0.161c1.091-0.064,1.718-0.118,1.879-0.16
				c0.309-0.086,0.491-0.284,0.543-0.595c0.14-0.77,0.21-2.429,0.21-4.976v-9.117c0-2.644-0.017-4.132-0.048-4.463h-2.295
				c-1.916,0-3.034,0.059-3.354,0.177c-0.172,0.065-0.29,0.145-0.354,0.241c-0.097,0.171-0.177,0.513-0.241,1.027
				c-0.076,0.566-0.123,1.15-0.145,1.75l-0.16,0.161h-1.012l-0.177-0.161L28.375,6.74c-0.011-0.771-0.074-1.567-0.191-2.393
				l0.145-0.161c0.632,0.108,2.932,0.161,6.903,0.161h6.5c3.661,0,5.96-0.053,6.902-0.161L48.795,4.347z"/>
		</g>
	</g>
	<g>
		<g>
			<defs>
				<rect id="SVGID_1_" x="2.91" y="3.438" width="71.328" height="64.952"/>
			</defs>
			<clipPath id="SVGID_2_">
				<use xlink:href="#SVGID_1_"  overflow="visible"/>
			</clipPath>
			<path clip-path="url(#SVGID_2_)" d="M4.239,68.215h68.665c0.729,0,1.324-0.597,1.324-1.324c0-0.247-0.071-0.495-0.188-0.686
				l-6.653-13.496V16.353c0-0.727-0.598-1.325-1.326-1.325H51.428c-0.727,0-1.324,0.598-1.324,1.325
				c0,0.729,0.598,1.325,1.324,1.325h13.323v34.025h-52.27V17.678h12.986c0.729,0,1.325-0.597,1.325-1.325
				c0-0.727-0.597-1.325-1.325-1.325H11.142c-0.729,0-1.326,0.598-1.326,1.325v36.356l-6.77,13.599
				c-0.204,0.407-0.173,0.889,0.06,1.281C3.354,67.982,3.788,68.215,4.239,68.215L4.239,68.215z M29.474,65.579l1.163-2.328h15.898
				l1.151,2.328H29.474z M11.957,54.34h53.275l5.533,11.225H50.613l-2.081-4.236c-0.219-0.45-0.686-0.742-1.181-0.742H29.807
				c-0.493,0-0.961,0.277-1.179,0.729l-2.112,4.237H6.365L11.957,54.34z M11.957,54.34"/>
		</g>
	</g>
</g>
</svg>
