<?xml version="1.0" encoding="utf-8"?>
<!-- Generator: Adobe Illustrator 16.0.0, SVG Export Plug-In . SVG Version: 6.00 Build 0)  -->
<!DOCTYPE svg PUBLIC "-//W3C//DTD SVG 1.1//EN" "http://www.w3.org/Graphics/SVG/1.1/DTD/svg11.dtd">
<svg version="1.1" id="Layer_1" xmlns="http://www.w3.org/2000/svg" xmlns:xlink="http://www.w3.org/1999/xlink" x="0px" y="0px"
	 width="51.667px" height="53.667px" viewBox="0 0 51.667 53.667" enable-background="new 0 0 51.667 53.667" xml:space="preserve">
<g>
	<path fill="#CCCCCC" d="M18.531-4.285l23.864,30.766L18.531,57.248l-0.615-0.794l23.146-29.973L17.791-3.33L18.531-4.285z
		 M18.531-4.285"/>
</g>
</svg>
