<?xml version="1.0" encoding="utf-8"?>
<!-- Generator: Adobe Illustrator 16.0.0, SVG Export Plug-In . SVG Version: 6.00 Build 0)  -->
<!DOCTYPE svg PUBLIC "-//W3C//DTD SVG 1.1//EN" "http://www.w3.org/Graphics/SVG/1.1/DTD/svg11.dtd">
<svg version="1.1" id="Layer_1" xmlns="http://www.w3.org/2000/svg" xmlns:xlink="http://www.w3.org/1999/xlink" x="0px" y="0px"
	 width="16.125px" height="16.292px" viewBox="0 0 16.125 16.292" enable-background="new 0 0 16.125 16.292" xml:space="preserve">
<g>
	<path fill-rule="evenodd" clip-rule="evenodd" fill="#EF4545" d="M9.417,15.333c0.104,0,0.21,0,0.314,0
		c0.016-0.006,0.031-0.015,0.048-0.016c0.53-0.071,0.953-0.323,1.239-0.776c0.429-0.681,0.51-1.424,0.326-2.192
		c-0.076-0.323-0.213-0.633-0.325-0.948c-0.087-0.246-0.178-0.491-0.271-0.745c0.044,0,0.08,0,0.113,0
		c1.107,0.001,2.211,0.002,3.315,0.002c0.152,0,0.308,0.015,0.456-0.016c0.556-0.113,0.921-0.458,1.11-0.991
		c0.037-0.112,0.057-0.23,0.085-0.346c0-0.109,0-0.221,0-0.331c-0.005-0.014-0.014-0.027-0.016-0.04
		c-0.051-0.395-0.236-0.715-0.551-0.958c-0.034-0.027-0.07-0.054-0.103-0.08c0.335-0.595,0.228-1.515-0.496-1.996
		c0.182-0.344,0.232-0.708,0.135-1.092c-0.099-0.381-0.313-0.677-0.638-0.897c0.163-0.286,0.219-0.587,0.174-0.902
		c-0.104-0.759-0.746-1.329-1.505-1.327c-2.724,0.008-5.447,0.002-8.172,0.002c-0.031,0-0.063,0-0.099,0
		C4.558,1.719,4.555,1.747,4.555,1.771c0,2.606,0,5.209,0.002,7.815c0,0.039,0.021,0.092,0.051,0.118
		c0.215,0.202,0.436,0.397,0.652,0.597c0.815,0.754,1.63,1.507,2.441,2.262c0.221,0.203,0.396,0.443,0.54,0.706
		c0.229,0.41,0.337,0.852,0.387,1.313c0.045,0.376,0.288,0.637,0.653,0.72C9.328,15.311,9.371,15.322,9.417,15.333z"/>
	<path fill-rule="evenodd" clip-rule="evenodd" fill="#EF4545" d="M0.569,10.251c0.062,0.099,0.109,0.206,0.186,0.288
		c0.083,0.09,0.204,0.117,0.329,0.116c0.647-0.001,1.296,0,1.942-0.001c0.312,0,0.517-0.195,0.533-0.504
		c0.001-0.023,0.001-0.047,0.001-0.07c0-2.94-0.002-5.877,0-8.816c0-0.186-0.039-0.355-0.199-0.472
		C3.297,0.748,3.219,0.723,3.145,0.688c-0.724,0-1.448,0-2.172,0C0.925,0.707,0.878,0.724,0.83,0.748
		C0.689,0.82,0.619,0.947,0.569,1.09C0.569,4.143,0.569,7.199,0.569,10.251z"/>
</g>
</svg>
