<?xml version="1.0" encoding="utf-8"?>
<!-- Generator: Adobe Illustrator 16.0.0, SVG Export Plug-In . SVG Version: 6.00 Build 0)  -->
<!DOCTYPE svg PUBLIC "-//W3C//DTD SVG 1.1//EN" "http://www.w3.org/Graphics/SVG/1.1/DTD/svg11.dtd">
<svg version="1.1" id="Layer_1" xmlns="http://www.w3.org/2000/svg" xmlns:xlink="http://www.w3.org/1999/xlink" x="0px" y="0px"
	 width="7.743px" height="9.715px" viewBox="0 0 7.743 9.715" enable-background="new 0 0 7.743 9.715" xml:space="preserve">
<polygon fill="#0275D8" points="0.504,0.386 7.239,4.875 0.504,9.362 "/>
</svg>
