<?xml version="1.0" encoding="utf-8"?>
<!-- Generator: Adobe Illustrator 16.0.0, SVG Export Plug-In . SVG Version: 6.00 Build 0)  -->
<!DOCTYPE svg PUBLIC "-//W3C//DTD SVG 1.1//EN" "http://www.w3.org/Graphics/SVG/1.1/DTD/svg11.dtd">
<svg version="1.1" id="Layer_1" xmlns="http://www.w3.org/2000/svg" xmlns:xlink="http://www.w3.org/1999/xlink" x="0px" y="0px"
	 width="15px" height="7.219px" viewBox="0 0 15 7.219" enable-background="new 0 0 15 7.219" xml:space="preserve">
<path fill-rule="evenodd" clip-rule="evenodd" fill="#929292" d="M4.191,3.575c0.456,0,0.902,0,1.369,0
	c0,0.105,0.006,0.208-0.001,0.311C5.478,4.964,6.357,5.612,7.266,5.605c1.095-0.009,2.191-0.001,3.286-0.003
	c0.457-0.002,0.916,0.01,1.37-0.022c0.699-0.053,1.291-0.594,1.397-1.269c0.039-0.247,0.02-0.504,0.02-0.756
	c0-0.208,0.015-0.422-0.019-0.626C13.213,2.281,12.68,1.75,12.01,1.674c-0.457-0.052-0.923-0.032-1.385-0.033
	c-0.12,0-0.181-0.029-0.234-0.143C10.172,1.03,9.839,0.656,9.414,0.364C9.378,0.339,9.341,0.312,9.283,0.271
	c0.049-0.005,0.07-0.009,0.092-0.009c0.824,0,1.649-0.031,2.473,0.01c1.181,0.06,2.063,0.63,2.604,1.694
	c0.166,0.327,0.258,0.678,0.26,1.045c0.003,0.49,0.044,0.988-0.031,1.468c-0.193,1.251-0.965,2.024-2.157,2.381
	c-0.27,0.082-0.562,0.113-0.845,0.115c-1.486,0.012-2.973,0.01-4.458,0.004C5.877,6.976,4.713,6.152,4.318,4.951
	C4.171,4.501,4.174,4.044,4.191,3.575z"/>
<path fill-rule="evenodd" clip-rule="evenodd" fill="#929292" d="M10.108,3.729c-0.446,0-0.892,0-1.354,0
	c0-0.198,0.003-0.387-0.001-0.576C8.74,2.435,8.292,1.848,7.623,1.682C7.506,1.652,7.379,1.64,7.256,1.639
	C5.913,1.636,4.57,1.636,3.227,1.638c-0.91,0.001-1.55,0.632-1.555,1.541C1.67,3.572,1.648,3.973,1.703,4.362
	c0.101,0.723,0.71,1.225,1.44,1.238c0.204,0.005,0.41-0.003,0.614,0.005c0.047,0.003,0.115,0.032,0.134,0.069
	c0.255,0.53,0.635,0.946,1.131,1.256C5.033,6.938,5.04,6.95,5.066,6.981c-0.059,0-0.1,0-0.139,0c-0.582,0-1.162,0.002-1.744,0
	C1.598,6.976,0.346,5.774,0.295,4.188C0.277,3.633,0.239,3.073,0.355,2.521C0.629,1.229,1.77,0.275,3.088,0.265
	c1.42-0.012,2.84-0.013,4.26,0c1.423,0.013,2.659,1.187,2.758,2.606C10.126,3.149,10.108,3.43,10.108,3.729z"/>
</svg>
