<?xml version="1.0" encoding="utf-8"?>
<!-- Generator: Adobe Illustrator 16.0.0, SVG Export Plug-In . SVG Version: 6.00 Build 0)  -->
<!DOCTYPE svg PUBLIC "-//W3C//DTD SVG 1.1//EN" "http://www.w3.org/Graphics/SVG/1.1/DTD/svg11.dtd">
<svg version="1.1" id="Layer_1" xmlns="http://www.w3.org/2000/svg" xmlns:xlink="http://www.w3.org/1999/xlink" x="0px" y="0px"
	 width="13.578px" height="14.523px" viewBox="0 0 13.578 14.523" enable-background="new 0 0 13.578 14.523" xml:space="preserve">
<rect x="0.157" y="0.125" fill="#A5A5A5" width="3.29" height="2.609"/>
<rect x="4.423" y="0.125" fill="#A5A5A5" width="9.015" height="2.609"/>
<rect x="0.157" y="11.914" fill="#A5A5A5" width="3.29" height="2.609"/>
<rect x="4.423" y="11.914" fill="#A5A5A5" width="9.015" height="2.609"/>
<g>
	<rect x="0.149" y="6.066" fill="#A5A5A5" width="3.29" height="2.609"/>
	<rect x="4.415" y="6.066" fill="#A5A5A5" width="9.015" height="2.609"/>
</g>
</svg>
