<?xml version="1.0" encoding="utf-8"?>
<!-- Generator: Adobe Illustrator 16.0.0, SVG Export Plug-In . SVG Version: 6.00 Build 0)  -->
<!DOCTYPE svg PUBLIC "-//W3C//DTD SVG 1.1//EN" "http://www.w3.org/Graphics/SVG/1.1/DTD/svg11.dtd">
<svg version="1.1" id="Layer_1" xmlns="http://www.w3.org/2000/svg" xmlns:xlink="http://www.w3.org/1999/xlink" x="0px" y="0px"
	 width="14px" height="12px" viewBox="0 0 14 12" enable-background="new 0 0 14 12" xml:space="preserve">
<g>
	<path fill="#0275D8" d="M3.737,4.315h6.682c0.261,0,0.464-0.204,0.464-0.464c0-0.26-0.203-0.465-0.464-0.465H3.737
		c-0.261,0-0.464,0.205-0.464,0.465C3.273,4.112,3.476,4.315,3.737,4.315L3.737,4.315z"/>
	<g>
		<path fill="#0275D8" d="M3.737,6.559h6.682c0.261,0,0.464-0.205,0.464-0.465c0-0.261-0.203-0.465-0.464-0.465H3.737
			c-0.261,0-0.464,0.205-0.464,0.465C3.273,6.354,3.476,6.559,3.737,6.559L3.737,6.559z"/>
		<path fill="#0275D8" d="M0.962,9.559h1.495v1.529c0,0.182,0.102,0.34,0.26,0.419c0.068,0.034,0.136,0.045,0.204,0.045
			c0.103,0,0.204-0.032,0.284-0.091L5.696,9.57h7.5c0.26,0,0.464-0.204,0.464-0.465V0.85c0-0.261-0.204-0.464-0.464-0.464H0.962
			c-0.261,0-0.464,0.204-0.464,0.464v8.246C0.498,9.354,0.713,9.559,0.962,9.559L0.962,9.559z M1.427,1.314h11.291V8.63h-7.18
			c-0.103,0-0.204,0.035-0.283,0.093l-1.869,1.426V9.096c0-0.262-0.204-0.466-0.464-0.466H1.427V1.314z"/>
	</g>
</g>
</svg>
