<?xml version="1.0" encoding="utf-8"?>
<!-- Generator: Adobe Illustrator 16.0.0, SVG Export Plug-In . SVG Version: 6.00 Build 0)  -->
<!DOCTYPE svg PUBLIC "-//W3C//DTD SVG 1.1//EN" "http://www.w3.org/Graphics/SVG/1.1/DTD/svg11.dtd">
<svg version="1.1" id="Layer_1" xmlns="http://www.w3.org/2000/svg" xmlns:xlink="http://www.w3.org/1999/xlink" x="0px" y="0px"
	 width="24.333px" height="21.896px" viewBox="0 0 24.333 21.896" enable-background="new 0 0 24.333 21.896" xml:space="preserve">
<g>
	<path d="M0.926,4.634v16.091h22.784V4.634H0.926z M22.854,19.835H1.781V5.522h21.073V19.835L22.854,19.835z"/>
	<g>
		<rect x="8.023" y="1.143" width="0.973" height="4.246"/>
		<rect x="15.638" y="1.143" width="0.975" height="4.246"/>
		<rect x="8.023" y="1.143" width="7.968" height="0.973"/>
	</g>
	<rect x="5.298" y="12.678" opacity="0.5" enable-background="new    " width="14.037" height="0.831"/>
</g>
</svg>
