<?xml version="1.0" encoding="utf-8"?>
<!-- Generator: Adobe Illustrator 16.0.0, SVG Export Plug-In . SVG Version: 6.00 Build 0)  -->
<!DOCTYPE svg PUBLIC "-//W3C//DTD SVG 1.1//EN" "http://www.w3.org/Graphics/SVG/1.1/DTD/svg11.dtd">
<svg version="1.1" id="Layer_1" xmlns="http://www.w3.org/2000/svg" xmlns:xlink="http://www.w3.org/1999/xlink" x="0px" y="0px"
	 width="81.167px" height="73.833px" viewBox="0 0 81.167 73.833" enable-background="new 0 0 81.167 73.833" xml:space="preserve">
<g>
	<path fill="#73C7AC" d="M69.351,6.286"/>
	<path d="M40.312,22.249c-10.17,0-18.442,8.272-18.442,18.44c0,10.168,8.272,18.441,18.442,18.441
		c10.166,0,18.439-8.273,18.439-18.441c0-4.527-1.642-8.678-4.359-11.892l-2.197,2.198c2.161,2.645,3.46,6.02,3.46,9.694
		c0,8.461-6.885,15.346-15.346,15.346c-8.46,0-15.343-6.885-15.343-15.346c0-8.461,6.883-15.344,15.343-15.344
		c3.675,0,7.052,1.298,9.696,3.46l2.197-2.197C48.989,23.89,44.837,22.249,40.312,22.249L40.312,22.249z M40.312,22.249"/>
	<g>
		<defs>
			<rect id="SVGID_1_" x="13.423" y="1.016" width="66.562" height="66.748"/>
		</defs>
		<clipPath id="SVGID_2_">
			<use xlink:href="#SVGID_1_"  overflow="visible"/>
		</clipPath>
		<path clip-path="url(#SVGID_2_)" fill="#217BC0" d="M33.411,40.689c0,3.805,3.096,6.898,6.9,6.898
			c3.802,0,6.897-3.094,6.897-6.898c0-1.342-0.387-2.594-1.053-3.656l-4.751,4.752c-0.304,0.303-0.698,0.453-1.094,0.453
			c-0.397,0-0.793-0.15-1.097-0.453c-0.604-0.604-0.604-1.586,0-2.191l4.752-4.749c-1.062-0.667-2.314-1.055-3.655-1.055
			C36.506,33.791,33.411,36.885,33.411,40.689L33.411,40.689z M33.411,40.689"/>
		<path clip-path="url(#SVGID_2_)" d="M79.882,9.508c-0.239-0.579-0.804-0.956-1.431-0.956h-6.004V2.548
			c0-0.626-0.376-1.19-0.957-1.43c-0.577-0.24-1.244-0.108-1.688,0.335l-6.063,6.064c-0.29,0.292-0.453,0.685-0.453,1.095v6.912
			L58.2,20.61c-4.929-4.4-11.222-6.807-17.889-6.807c-7.188,0-13.942,2.794-19.018,7.871c-5.077,5.075-7.871,11.828-7.871,19.016
			c0,7.188,2.794,13.941,7.871,19.018c5.075,5.074,11.829,7.869,19.018,7.869c7.186,0,13.939-2.795,19.014-7.869
			c5.078-5.076,7.872-11.83,7.872-19.018c0-6.667-2.408-12.96-6.809-17.889l5.087-5.086h6.912c0.409,0,0.804-0.164,1.094-0.454
			l6.064-6.064C79.989,10.753,80.122,10.087,79.882,9.508L79.882,9.508z M40.312,64.48c-13.119,0-23.791-10.672-23.791-23.791
			c0-13.118,10.672-23.79,23.791-23.79c6.001,0,11.492,2.235,15.682,5.917l-5.988,5.988l-3.813,3.811
			c-1.651-1.206-3.685-1.921-5.881-1.921c-5.511,0-9.996,4.484-9.996,9.995c0,5.512,4.485,9.996,9.996,9.996
			c5.509,0,9.993-4.484,9.993-9.996c0-2.197-0.715-4.231-1.921-5.882l3.811-3.812l2.197-2.198l3.79-3.791
			c3.683,4.191,5.919,9.679,5.919,15.683C64.101,53.809,53.429,64.48,40.312,64.48L40.312,64.48z M39.215,39.594
			c-0.604,0.605-0.604,1.588,0,2.191c0.302,0.303,0.699,0.453,1.097,0.453c0.396,0,0.79-0.15,1.094-0.453l4.751-4.752
			c0.665,1.063,1.053,2.314,1.053,3.656c0,3.805-3.097,6.898-6.9,6.898c-3.803,0-6.897-3.094-6.897-6.898s3.095-6.899,6.897-6.899
			c1.344,0,2.597,0.388,3.657,1.055L39.215,39.594z M68.573,14.617l2.968-2.968h3.173l-2.968,2.968H68.573z M66.382,9.253
			l2.969-2.967V9.46l-2.969,2.967V9.253z M66.382,9.253"/>
	</g>
</g>
</svg>
