<?xml version="1.0" encoding="utf-8"?>
<!-- Generator: Adobe Illustrator 16.0.0, SVG Export Plug-In . SVG Version: 6.00 Build 0)  -->
<!DOCTYPE svg PUBLIC "-//W3C//DTD SVG 1.1//EN" "http://www.w3.org/Graphics/SVG/1.1/DTD/svg11.dtd">
<svg version="1.1" id="Layer_1" xmlns="http://www.w3.org/2000/svg" xmlns:xlink="http://www.w3.org/1999/xlink" x="0px" y="0px"
	 width="36px" height="35px" viewBox="0 0 36 35" enable-background="new 0 0 36 35" xml:space="preserve">
<path fill="none" stroke="#0FCA7C" stroke-width="1.5" stroke-miterlimit="10" d="M29.864,23.719c0,3.255-2.641,5.896-5.896,5.896
	H10.761c-3.256,0-5.897-2.642-5.897-5.896V10.512c0-3.256,2.642-5.897,5.897-5.897h13.207c3.256,0,5.896,2.641,5.896,5.897V23.719z"
	/>
<path fill="#0FCA7C" stroke="#0FCA7C" stroke-miterlimit="10" d="M21.291,13.462l-5.748,5.722l-2.098-2.111
	c-0.293-0.293-0.768-0.293-1.061-0.006s-0.293,0.765-0.006,1.061l2.625,2.643c0.146,0.146,0.334,0.219,0.532,0.219
	c0.188,0,0.381-0.07,0.527-0.219l6.28-6.245c0.293-0.296,0.293-0.765,0.006-1.061C22.059,13.169,21.584,13.169,21.291,13.462
	L21.291,13.462z"/>
</svg>
