<?xml version="1.0" encoding="utf-8"?>
<!-- Generator: Adobe Illustrator 16.0.0, SVG Export Plug-In . SVG Version: 6.00 Build 0)  -->
<!DOCTYPE svg PUBLIC "-//W3C//DTD SVG 1.1//EN" "http://www.w3.org/Graphics/SVG/1.1/DTD/svg11.dtd">
<svg version="1.1" id="Layer_1" xmlns="http://www.w3.org/2000/svg" xmlns:xlink="http://www.w3.org/1999/xlink" x="0px" y="0px"
	 width="130px" height="130px" viewBox="0 0 130 130" enable-background="new 0 0 130 130" xml:space="preserve">
<g>
	<path fill="#C99171" d="M66.126,129.26c-15.114,0-29.759-5.48-41.236-15.431C13.308,103.788,5.794,89.883,3.734,74.675
		c-2.26-16.686,2.113-33.254,12.313-46.652C26.247,14.625,41.054,6.002,57.74,3.741c2.831-0.383,5.705-0.578,8.541-0.578
		c15.114,0,29.759,5.479,41.236,15.43c11.583,10.041,19.097,23.946,21.157,39.153c2.26,16.687-2.112,33.254-12.313,46.653
		c-10.2,13.397-25.007,22.021-41.693,24.281C71.837,129.064,68.963,129.26,66.126,129.26z M66.281,4.703
		c-2.768,0-5.572,0.19-8.334,0.564C24.343,9.82,0.708,40.864,5.26,74.468c4.113,30.358,30.28,53.251,60.866,53.251
		c2.768,0,5.572-0.189,8.335-0.563c33.604-4.553,57.239-35.597,52.688-69.202C123.035,27.596,96.868,4.703,66.281,4.703z"/>
</g>
<g>
	<path fill="#C99171" d="M66.229,108.077c-10.042,0-19.771-3.641-27.397-10.251c-7.695-6.672-12.687-15.91-14.056-26.015
		c-3.101-22.886,12.996-44.027,35.881-47.128c1.881-0.255,3.79-0.384,5.674-0.384c10.042,0,19.772,3.641,27.398,10.251
		c7.695,6.671,12.688,15.91,14.056,26.014c1.502,11.086-1.403,22.094-8.181,30.996s-16.614,14.631-27.7,16.133
		C70.023,107.948,68.114,108.077,66.229,108.077z M66.332,25.84c-1.815,0-3.655,0.125-5.467,0.37
		c-22.044,2.986-37.548,23.351-34.563,45.395C29,91.52,46.166,106.537,66.229,106.537c1.815,0,3.655-0.124,5.469-0.37
		c10.678-1.446,20.154-6.965,26.683-15.539c6.527-8.574,9.326-19.178,7.88-29.856C103.563,40.857,86.397,25.84,66.332,25.84z"/>
</g>
<g>
	<g>
		<path fill="#C99171" d="M40.591,112.521c0.82,0.479,1.491,0.283,2.014-0.586l0.167-0.287l-0.957-0.559l0.428-0.732l1.956,1.142
			l-1.834,3.143l-0.581-0.339l0.162-0.73c-0.649,0.276-1.304,0.222-1.965-0.164c-0.934-0.545-1.41-1.207-1.428-1.986
			c-0.012-0.397,0.054-0.805,0.196-1.218c0.142-0.414,0.368-0.887,0.678-1.417c0.31-0.531,0.612-0.96,0.907-1.289
			c0.295-0.328,0.618-0.578,0.97-0.75c0.698-0.345,1.534-0.233,2.507,0.335c0.7,0.408,1.114,0.857,1.241,1.346
			s0.049,1.053-0.233,1.693l-1.023-0.405c0.162-0.356,0.208-0.677,0.137-0.959c-0.072-0.283-0.293-0.532-0.663-0.749
			c-0.535-0.313-0.999-0.349-1.39-0.11s-0.821,0.759-1.29,1.563c-0.469,0.803-0.716,1.438-0.741,1.905
			C39.826,111.834,40.073,112.219,40.591,112.521z"/>
		<path fill="#C99171" d="M47.229,109.07l3.757,1.574l-0.396,0.944l-2.517-1.055l-0.761,1.817l2.289,0.959l-0.392,0.936
			l-2.289-0.959l-0.807,1.926l2.7,1.131l-0.396,0.944l-3.939-1.65L47.229,109.07z"/>
		<path fill="#C99171" d="M56.139,112.133l1.299,0.346l-1.832,6.881l-1.376-0.366l-1.517-5.41l-1.245,4.675l-1.299-0.346
			l1.832-6.881l1.376,0.366l1.514,5.42L56.139,112.133z"/>
		<path fill="#C99171" d="M62.73,113.15l1.337,0.148l-0.524,4.74c-0.048,0.434-0.145,0.799-0.29,1.097
			c-0.146,0.298-0.31,0.523-0.493,0.677c-0.183,0.153-0.408,0.266-0.674,0.338c-0.267,0.071-0.511,0.108-0.733,0.11
			c-0.223,0.002-0.478-0.014-0.766-0.045c-0.289-0.032-0.541-0.073-0.757-0.123c-0.217-0.051-0.447-0.14-0.692-0.268
			c-0.244-0.129-0.438-0.288-0.579-0.477s-0.251-0.444-0.328-0.768c-0.077-0.322-0.092-0.7-0.044-1.133l0.523-4.741l1.337,0.147
			l-0.513,4.644c-0.066,0.602,0.008,1.014,0.222,1.237c0.214,0.223,0.531,0.357,0.951,0.404c0.203,0.021,0.375,0.024,0.516,0.008
			c0.141-0.018,0.286-0.067,0.434-0.148c0.304-0.169,0.491-0.57,0.561-1.204L62.73,113.15z"/>
		<path fill="#C99171" d="M65.491,113.273l1.345,0.006l-0.034,7.121l-1.345-0.007L65.491,113.273z"/>
		<path fill="#C99171" d="M72.648,112.87l1.337-0.141l0.746,7.081l-1.415,0.149l-3.35-4.513l0.507,4.812l-1.337,0.142l-0.747-7.082
			l1.417-0.149l3.35,4.522L72.648,112.87z"/>
		<path fill="#C99171" d="M75.447,112.41l3.961-0.955l0.24,0.995l-2.653,0.641l0.462,1.915l2.413-0.582l0.237,0.986l-2.412,0.582
			l0.489,2.029l2.846-0.687l0.24,0.995l-4.152,1.002L75.447,112.41z"/>
		<path fill="#C99171" d="M85.615,110.139c-0.569,0.245-0.875,0.594-0.917,1.048c-0.041,0.453,0.125,1.114,0.499,1.983
			s0.74,1.445,1.1,1.73c0.359,0.284,0.823,0.304,1.393,0.059c0.441-0.189,0.703-0.444,0.786-0.763
			c0.082-0.318,0.031-0.707-0.152-1.167l1.019-0.385c0.283,0.792,0.347,1.454,0.193,1.987c-0.154,0.534-0.629,0.972-1.422,1.313
			c-1.035,0.445-1.878,0.454-2.529,0.026c-0.328-0.213-0.618-0.5-0.871-0.862s-0.502-0.83-0.749-1.403s-0.415-1.076-0.504-1.509
			c-0.09-0.433-0.099-0.841-0.026-1.226c0.136-0.767,0.722-1.373,1.758-1.818c0.744-0.32,1.352-0.387,1.819-0.199
			c0.469,0.188,0.876,0.586,1.225,1.193l-0.934,0.582c-0.191-0.342-0.421-0.568-0.691-0.679S86.009,109.969,85.615,110.139z"/>
		<path fill="#C99171" d="M91.77,114.04l-3.521-6.188l1.169-0.665l3.015,5.299l2.14-1.218l0.507,0.891L91.77,114.04z"/>
		<path fill="#C99171" d="M92.149,105.519l1.111-0.759l4.014,5.882l-1.11,0.758L92.149,105.519z"/>
		<path fill="#C99171" d="M94.574,103.84l3.146-2.59l0.65,0.79l-2.106,1.735l1.252,1.521l1.917-1.578l0.645,0.783l-1.916,1.578
			l1.327,1.611l2.26-1.86l0.65,0.79l-3.297,2.716L94.574,103.84z"/>
		<path fill="#C99171" d="M101.447,97.388l0.913-0.987l5.228,4.835l-0.967,1.045l-5.492-1.188l3.551,3.286l-0.913,0.986
			l-5.227-4.835l0.967-1.045l5.499,1.194L101.447,97.388z"/>
		<path fill="#C99171" d="M103.511,96.548l-0.821-0.579l2.958-4.194l0.821,0.579l-1.089,1.544l4.998,3.524l-0.774,1.099
			l-4.999-3.524L103.511,96.548z"/>
		<path fill="#C99171" d="M111.248,89.409c0.413-0.106,0.894-0.012,1.442,0.285c0.549,0.298,0.885,0.727,1.007,1.287
			c0.121,0.561-0.019,1.212-0.421,1.954c-0.401,0.742-0.848,1.194-1.338,1.355c-0.491,0.162-1.054,0.12-1.689-0.127l0.367-1.027
			c0.356,0.148,0.682,0.173,0.976,0.073s0.538-0.329,0.733-0.688c0.417-0.771,0.337-1.313-0.24-1.626
			c-0.246-0.133-0.472-0.161-0.676-0.084s-0.469,0.293-0.795,0.649l-0.389,0.431c-0.456,0.502-0.893,0.802-1.308,0.899
			s-0.901-0.004-1.459-0.307c-0.558-0.302-0.9-0.723-1.029-1.265c-0.128-0.542,0.002-1.171,0.39-1.887
			c0.387-0.716,0.822-1.147,1.305-1.295c0.483-0.147,1.043-0.098,1.678,0.149l-0.362,1.018c-0.75-0.308-1.306-0.129-1.666,0.537
			c-0.198,0.365-0.265,0.678-0.202,0.937c0.063,0.26,0.224,0.459,0.48,0.598c0.258,0.14,0.485,0.177,0.684,0.111
			c0.197-0.065,0.447-0.26,0.749-0.584l0.441-0.469C110.395,89.824,110.836,89.516,111.248,89.409z"/>
	</g>
</g>
<g>
	<path fill="#C99171" d="M15.886,60.303c-0.354-0.019-0.796-0.078-1.326-0.177c-0.531-0.099-0.998-0.228-1.401-0.387
		c-0.404-0.159-0.752-0.373-1.046-0.643c-0.293-0.27-0.485-0.609-0.574-1.018c-0.089-0.409-0.081-0.895,0.024-1.459
		c0.105-0.564,0.275-1.021,0.51-1.374c0.234-0.352,0.535-0.599,0.902-0.742c0.367-0.143,0.769-0.217,1.203-0.223
		c0.435-0.006,1.023,0.06,1.764,0.198c0.742,0.138,1.368,0.355,1.878,0.651c0.51,0.297,0.844,0.715,1.001,1.253l0.776-1.183
		l0.909,0.713l-1.735,2.332c-0.277,1.169-0.897,1.834-1.86,1.997C16.581,60.302,16.24,60.322,15.886,60.303z M14.912,58.824
		c0.87,0.162,1.537,0.174,2.003,0.036c0.466-0.138,0.753-0.5,0.862-1.086s-0.028-1.028-0.413-1.324
		c-0.384-0.296-1.011-0.525-1.881-0.688s-1.537-0.174-2.002-0.037c-0.465,0.138-0.753,0.5-0.862,1.086s0.028,1.028,0.413,1.324
		S14.042,58.662,14.912,58.824z"/>
	<path fill="#C99171" d="M14.072,47.918l0.431-1.274l4.519,1.528c0.413,0.14,0.749,0.313,1.009,0.519
		c0.26,0.206,0.445,0.415,0.555,0.625c0.11,0.212,0.172,0.455,0.186,0.731s-0.003,0.522-0.049,0.74
		c-0.046,0.218-0.116,0.463-0.208,0.738c-0.093,0.275-0.187,0.513-0.283,0.714c-0.095,0.201-0.232,0.407-0.41,0.618
		c-0.178,0.211-0.374,0.366-0.589,0.463c-0.215,0.098-0.488,0.15-0.82,0.156c-0.332,0.006-0.704-0.061-1.116-0.2l-4.519-1.527
		l0.431-1.274l4.427,1.496c0.573,0.194,0.991,0.21,1.255,0.049c0.264-0.161,0.464-0.442,0.599-0.841
		c0.065-0.193,0.105-0.361,0.119-0.502c0.013-0.142-0.004-0.294-0.052-0.456c-0.101-0.333-0.452-0.602-1.056-0.806L14.072,47.918z"
		/>
	<path fill="#C99171" d="M16.082,43.163l0.778-1.568l7.363,1.182l-0.576,1.16l-2.038-0.327l-1.055,2.125l1.497,1.417l-0.58,1.169
		L16.082,43.163z M17.596,42.942l2.195,2.072l0.782-1.577L17.596,42.942z"/>
	<path fill="#C99171" d="M24.708,42.108l-5.986-3.857l0.729-1.131l5.125,3.303l1.333-2.07l0.861,0.555L24.708,42.108z"/>
	<path fill="#C99171" d="M21.648,33.938l0.816-1.069l5.658,4.324l-0.816,1.068L21.648,33.938z"/>
	<path fill="#C99171" d="M23.91,31.073l2.6-2.875l0.76,0.687l-1.698,1.877l1.461,1.322l1.479-1.635l0.752,0.68l-1.479,1.635
		l2.308,2.087l-0.902,0.998L23.91,31.073z"/>
	<path fill="#C99171" d="M27.703,27.078l0.981-0.919l4.868,5.197l-0.981,0.919L27.703,27.078z"/>
	<path fill="#C99171" d="M30.426,24.597l3.206-2.514l0.632,0.806l-2.147,1.684l1.216,1.551l1.953-1.532l0.626,0.798l-1.953,1.532
		l1.288,1.643l2.303-1.806l0.632,0.806l-3.361,2.636L30.426,24.597z"/>
	<path fill="#C99171" d="M35.389,20.853l2.061-1.236c1.001-0.6,1.86-0.706,2.577-0.317c0.349,0.185,0.66,0.427,0.932,0.726
		c0.272,0.3,0.532,0.657,0.781,1.073c0.25,0.416,0.439,0.777,0.57,1.085c0.131,0.308,0.223,0.63,0.275,0.967
		c0.052,0.337,0.04,0.646-0.038,0.927c-0.171,0.625-0.649,1.174-1.435,1.645l-2.061,1.236L35.389,20.853z M37.824,20.587
		l-0.755,0.453l2.609,4.35l0.755-0.453c0.604-0.363,0.886-0.823,0.843-1.382c-0.043-0.482-0.259-1.046-0.647-1.693
		c-0.388-0.647-0.785-1.103-1.189-1.368C38.967,20.193,38.428,20.224,37.824,20.587z"/>
	<path fill="#C99171" d="M44.715,15.912l3.619-1.391l0.367,0.956l-2.363,0.908l0.707,1.839l2.059-0.791l0.364,0.947l-2.059,0.791
		l1.116,2.905l-1.255,0.482L44.715,15.912z"/>
	<path fill="#C99171" d="M50.048,13.969l2.441-0.632c0.887-0.23,1.563-0.16,2.026,0.211c0.396,0.32,0.664,0.748,0.802,1.283
		c0.247,0.951,0.033,1.678-0.64,2.181c0.179,0.115,0.35,0.272,0.511,0.472l1.671,2.076l-1.388,0.359l-1.576-1.98
		c-0.138-0.166-0.269-0.27-0.392-0.312c-0.123-0.042-0.29-0.036-0.5,0.019l-0.575,0.149l0.707,2.729l-1.302,0.337L50.048,13.969z
		 M52.171,16.805l0.986-0.255c0.383-0.099,0.642-0.277,0.776-0.534c0.134-0.256,0.161-0.541,0.08-0.852
		c-0.08-0.312-0.242-0.547-0.484-0.706c-0.242-0.159-0.554-0.189-0.938-0.089l-0.986,0.255L52.171,16.805z"/>
	<path fill="#C99171" d="M57.039,12.342l4.037-0.546l0.137,1.015l-2.704,0.366l0.264,1.953l2.46-0.333l0.136,1.005l-2.459,0.333
		l0.28,2.068l2.9-0.392l0.138,1.015l-4.233,0.573L57.039,12.342z"/>
	<path fill="#C99171" d="M63.129,11.654l4.072-0.099l0.025,1.024l-2.729,0.066l0.047,1.97l2.482-0.06l0.023,1.014l-2.481,0.06
		l0.05,2.087l2.926-0.071l0.025,1.024l-4.271,0.103L63.129,11.654z"/>
	<path fill="#C99171" d="M68.668,18.75l0.565-7.099l1.341,0.107l-0.484,6.077l2.455,0.196l-0.081,1.021L68.668,18.75z"/>
	<path fill="#C99171" d="M75.937,12.433l1.718,0.333l0.823,7.412l-1.272-0.246l-0.228-2.051l-2.33-0.451l-0.966,1.82L72.4,19.002
		L75.937,12.433z M76.552,13.834l-1.412,2.667l1.728,0.334L76.552,13.834z"/>
	<path fill="#C99171" d="M85.585,15.047l1.272,0.436l-2.306,6.737l-1.348-0.461l-1.137-5.503l-1.566,4.578l-1.272-0.435l2.306-6.737
		l1.348,0.461l1.134,5.512L85.585,15.047z"/>
	<path fill="#C99171" d="M91.106,18.522c-0.553-0.279-1.017-0.289-1.391-0.03c-0.374,0.259-0.774,0.812-1.2,1.656
		c-0.427,0.845-0.633,1.496-0.62,1.954s0.295,0.826,0.849,1.105c0.43,0.216,0.793,0.254,1.09,0.112s0.562-0.43,0.796-0.866
		l0.949,0.533c-0.425,0.725-0.891,1.2-1.399,1.425c-0.508,0.225-1.147,0.142-1.919-0.247c-1.006-0.508-1.555-1.148-1.644-1.922
		c-0.048-0.388-0.015-0.795,0.101-1.222c0.115-0.426,0.313-0.917,0.594-1.475c0.281-0.558,0.56-1.009,0.834-1.355
		c0.273-0.346,0.581-0.615,0.922-0.808c0.675-0.388,1.516-0.328,2.522,0.18c0.724,0.365,1.164,0.788,1.321,1.267
		c0.157,0.48,0.114,1.048-0.129,1.705l-1.046-0.341c0.141-0.366,0.166-0.688,0.078-0.966C91.726,18.951,91.489,18.715,91.106,18.522
		z"/>
	<path fill="#C99171" d="M95.271,19.76l3.396,2.25l-0.566,0.854l-2.274-1.507L94.738,23l2.069,1.371l-0.56,0.846l-2.069-1.371
		l-1.153,1.74l2.44,1.616L94.9,28.056l-3.562-2.359L95.271,19.76z"/>
	<path fill="#C99171" d="M100.374,23.289l1.916,1.638c0.697,0.596,1.026,1.189,0.988,1.782c-0.036,0.508-0.233,0.973-0.593,1.393
		c-0.639,0.747-1.356,0.988-2.154,0.725c0.009,0.213-0.022,0.443-0.095,0.689l-0.744,2.56l-1.09-0.932l0.721-2.425
		c0.057-0.209,0.066-0.375,0.03-0.5c-0.036-0.125-0.137-0.258-0.302-0.399l-0.451-0.386l-1.832,2.143l-1.022-0.874L100.374,23.289z
		 M99.266,26.654l0.774,0.662c0.301,0.257,0.595,0.367,0.882,0.33s0.536-0.177,0.745-0.422s0.31-0.512,0.301-0.801
		c-0.008-0.29-0.163-0.563-0.463-0.82l-0.774-0.662L99.266,26.654z"/>
	<path fill="#C99171" d="M105.721,33.747c-0.037,0.424-0.287,0.846-0.75,1.265s-0.979,0.592-1.548,0.521
		c-0.569-0.072-1.137-0.42-1.703-1.046s-0.844-1.196-0.834-1.713c0.011-0.516,0.238-1.033,0.683-1.551l0.846,0.688
		c-0.258,0.287-0.389,0.585-0.394,0.896c-0.004,0.31,0.132,0.617,0.406,0.92c0.588,0.65,1.126,0.754,1.613,0.313
		c0.207-0.188,0.308-0.39,0.304-0.609c-0.005-0.218-0.121-0.54-0.348-0.965l-0.277-0.509c-0.322-0.598-0.46-1.109-0.413-1.533
		c0.045-0.424,0.303-0.849,0.773-1.274c0.47-0.426,0.981-0.608,1.535-0.55c0.554,0.059,1.104,0.391,1.65,0.994
		c0.546,0.604,0.809,1.158,0.787,1.662c-0.022,0.504-0.255,1.015-0.698,1.533l-0.84-0.681c0.54-0.604,0.556-1.188,0.047-1.75
		c-0.278-0.308-0.551-0.475-0.816-0.502c-0.265-0.026-0.506,0.059-0.723,0.255s-0.328,0.399-0.332,0.607
		c-0.005,0.208,0.097,0.508,0.302,0.9l0.295,0.573C105.612,32.804,105.757,33.322,105.721,33.747z"/>
</g>
<g>
	<g>
		<path fill="#C99171" d="M38.704,78.092c-0.118-0.049-0.212-0.127-0.282-0.234l-5.278-7.895l-0.063-0.114
			c-0.021-0.072-0.011-0.146,0.031-0.223s0.104-0.126,0.185-0.149l1.779-0.519c0.136-0.04,0.258-0.033,0.367,0.019
			s0.189,0.118,0.243,0.201l3.637,5.602l0.071-6.683c-0.002-0.107,0.029-0.21,0.095-0.307c0.064-0.099,0.165-0.167,0.301-0.206
			l1.779-0.519c0.082-0.024,0.158-0.015,0.229,0.028c0.071,0.043,0.117,0.101,0.139,0.174c0.013,0.045,0.02,0.087,0.022,0.126
			l-0.224,9.497c0.007,0.126-0.026,0.241-0.099,0.346s-0.186,0.18-0.34,0.225l-2.187,0.638
			C38.957,78.143,38.822,78.141,38.704,78.092z"/>
		<path fill="#C99171" d="M45.935,75.999c-0.087-0.048-0.145-0.117-0.171-0.208l-2.569-8.816c-0.029-0.1-0.022-0.192,0.021-0.279
			c0.043-0.086,0.115-0.144,0.215-0.173l6.412-1.869c0.1-0.029,0.193-0.02,0.281,0.029c0.087,0.048,0.146,0.122,0.175,0.222
			l0.392,1.345c0.029,0.1,0.019,0.191-0.031,0.274c-0.049,0.083-0.124,0.139-0.224,0.168l-4.292,1.251l0.503,1.726l3.994-1.164
			c0.1-0.029,0.194-0.02,0.281,0.028c0.088,0.048,0.146,0.122,0.175,0.222l0.36,1.236c0.029,0.1,0.02,0.193-0.029,0.281
			c-0.048,0.087-0.122,0.146-0.221,0.175l-3.994,1.164l0.515,1.766l4.401-1.282c0.099-0.029,0.193-0.02,0.281,0.028
			s0.146,0.122,0.175,0.222l0.392,1.345c0.029,0.1,0.019,0.191-0.031,0.274s-0.124,0.139-0.224,0.168l-6.521,1.9
			C46.111,76.058,46.022,76.047,45.935,75.999z"/>
		<path fill="#C99171" d="M54.656,73.457c-0.088-0.048-0.145-0.117-0.171-0.208l-2.569-8.816c-0.029-0.1-0.022-0.192,0.022-0.279
			c0.043-0.086,0.115-0.144,0.215-0.173l3.736-1.089c1.195-0.348,2.209-0.349,3.042-0.002c0.833,0.347,1.394,1.014,1.681,2.001
			c0.185,0.634,0.195,1.216,0.03,1.746c-0.165,0.529-0.47,0.992-0.915,1.387l2.8,2.78c0.043,0.046,0.071,0.092,0.084,0.137
			c0.021,0.072,0.013,0.146-0.024,0.221c-0.037,0.075-0.096,0.124-0.178,0.147l-1.915,0.559c-0.263,0.077-0.484,0.009-0.664-0.204
			l-2.354-2.513l-1.304,0.381l0.867,2.975c0.029,0.1,0.019,0.191-0.031,0.274s-0.124,0.139-0.224,0.168l-1.861,0.543
			C54.833,73.517,54.744,73.505,54.656,73.457z M57.097,67.093c0.39-0.113,0.658-0.297,0.805-0.551s0.17-0.553,0.07-0.897
			c-0.1-0.344-0.283-0.591-0.547-0.74c-0.265-0.149-0.591-0.167-0.981-0.053l-1.508,0.439l0.653,2.242L57.097,67.093z"/>
		<path fill="#C99171" d="M64.097,70.705c-0.088-0.048-0.145-0.117-0.171-0.208l-2.573-8.83c-0.029-0.099-0.019-0.191,0.031-0.274
			c0.049-0.083,0.119-0.138,0.209-0.165l1.943-0.566c0.099-0.029,0.19-0.021,0.272,0.024c0.082,0.045,0.137,0.118,0.167,0.217
			l2.573,8.83c0.026,0.091,0.018,0.179-0.025,0.266c-0.044,0.086-0.115,0.144-0.215,0.173l-1.943,0.566
			C64.273,70.765,64.185,70.754,64.097,70.705z"/>
		<path fill="#C99171" d="M68.565,69.403c-0.087-0.049-0.145-0.118-0.171-0.209l-2.569-8.815c-0.029-0.1-0.022-0.193,0.022-0.279
			c0.043-0.086,0.115-0.144,0.214-0.173l6.317-1.841c0.1-0.029,0.192-0.02,0.28,0.028c0.088,0.048,0.146,0.123,0.176,0.222
			l0.42,1.44c0.028,0.1,0.019,0.191-0.031,0.274C73.175,60.133,73.1,60.189,73,60.218l-4.156,1.212l0.55,1.888l3.885-1.132
			c0.1-0.029,0.194-0.02,0.281,0.028c0.088,0.048,0.146,0.123,0.175,0.222l0.42,1.44c0.029,0.099,0.02,0.191-0.03,0.274
			C74.075,64.233,74,64.29,73.9,64.318l-3.885,1.132l0.879,3.015c0.026,0.091,0.018,0.18-0.026,0.267
			c-0.043,0.086-0.115,0.144-0.215,0.173l-1.82,0.53C68.742,69.462,68.653,69.451,68.565,69.403z"/>
		<path fill="#C99171" d="M77.002,66.944c-0.088-0.049-0.146-0.117-0.172-0.209l-2.573-8.829c-0.029-0.1-0.019-0.191,0.03-0.274
			c0.05-0.083,0.119-0.138,0.21-0.165l1.943-0.566c0.099-0.029,0.19-0.021,0.272,0.023c0.081,0.045,0.137,0.118,0.166,0.217
			l2.573,8.83c0.026,0.09,0.018,0.179-0.025,0.265c-0.044,0.087-0.116,0.145-0.215,0.174l-1.943,0.565
			C77.178,67.003,77.089,66.992,77.002,66.944z"/>
		<path fill="#C99171" d="M81.471,65.642c-0.088-0.048-0.145-0.117-0.171-0.208l-2.57-8.815c-0.028-0.1-0.021-0.193,0.022-0.28
			c0.043-0.086,0.115-0.144,0.215-0.173l6.411-1.869c0.101-0.029,0.193-0.02,0.281,0.029c0.088,0.048,0.146,0.122,0.176,0.222
			l0.392,1.344c0.029,0.1,0.019,0.191-0.03,0.275c-0.05,0.083-0.124,0.139-0.224,0.168l-4.293,1.251l0.503,1.725l3.993-1.165
			c0.1-0.029,0.193-0.019,0.281,0.029c0.088,0.048,0.146,0.122,0.175,0.221l0.36,1.236c0.029,0.1,0.021,0.194-0.028,0.281
			c-0.048,0.088-0.122,0.146-0.222,0.175l-3.993,1.165l0.514,1.765l4.402-1.283c0.1-0.029,0.192-0.02,0.28,0.029
			c0.088,0.048,0.146,0.122,0.176,0.222l0.392,1.345c0.029,0.099,0.019,0.191-0.03,0.274c-0.05,0.083-0.124,0.139-0.224,0.168
			l-6.521,1.9C81.647,65.701,81.559,65.69,81.471,65.642z"/>
		<path fill="#C99171" d="M90.191,63.1c-0.087-0.048-0.145-0.117-0.171-0.208l-2.569-8.816c-0.029-0.1-0.021-0.193,0.021-0.279
			c0.044-0.086,0.115-0.144,0.215-0.173l3.573-1.042c1.34-0.391,2.475-0.375,3.403,0.047c0.929,0.422,1.585,1.226,1.97,2.411
			c0.086,0.26,0.191,0.607,0.318,1.042s0.223,0.78,0.287,1.036c0.633,2.508-0.414,4.159-3.14,4.954l-3.641,1.061
			C90.368,63.159,90.279,63.148,90.191,63.1z M93.438,60.053c0.571-0.166,0.952-0.425,1.145-0.776
			c0.192-0.351,0.211-0.828,0.055-1.43c-0.059-0.268-0.147-0.61-0.27-1.027c-0.121-0.416-0.229-0.749-0.32-0.997
			c-0.188-0.574-0.468-0.957-0.843-1.147s-0.848-0.203-1.418-0.036l-1.29,0.376l1.583,5.434L93.438,60.053z"/>
	</g>
</g>
<g>
	<g>
		<polygon fill="#C99171" points="59.187,40.46 60.729,38.971 60.973,41.102 62.866,42.109 60.915,42.999 60.542,45.11 
			59.093,43.53 56.969,43.828 58.025,41.961 57.085,40.034 		"/>
		<polygon fill="#C99171" points="73.101,87.977 74.644,86.487 74.887,88.618 76.779,89.625 74.829,90.515 74.456,92.626 
			73.007,91.046 70.883,91.344 71.938,89.478 70.999,87.55 		"/>
	</g>
	<g>
		<polygon fill="#C99171" points="47.389,47.638 47.98,45.577 49.256,47.3 51.399,47.226 50.155,48.972 50.888,50.987 
			48.842,50.343 47.152,51.663 47.133,49.519 45.356,48.319 		"/>
		<polygon fill="#C99171" points="83.197,81.832 83.789,79.771 85.064,81.493 87.207,81.42 85.963,83.166 86.695,85.181 
			84.65,84.536 82.96,85.856 82.94,83.712 81.163,82.513 		"/>
	</g>
	<g>
		<polygon fill="#C99171" points="60.371,91.985 58.29,92.503 59.145,90.537 58.009,88.719 60.143,88.923 61.522,87.28 
			61.986,89.374 63.975,90.179 62.127,91.267 61.977,93.406 		"/>
		<polygon fill="#C99171" points="72.078,43.878 69.998,44.396 70.853,42.429 69.717,40.611 71.851,40.815 73.229,39.173 
			73.695,41.267 75.683,42.07 73.836,43.159 73.686,45.298 		"/>
	</g>
</g>
<polygon fill="#C99171" points="15.002,79.739 15.594,77.679 16.87,79.401 19.013,79.328 17.768,81.073 18.501,83.089 
	16.456,82.444 14.766,83.765 14.746,81.62 12.969,80.421 "/>
<polygon fill="#C99171" points="113.453,51.17 114.045,49.109 115.32,50.832 117.464,50.758 116.219,52.503 116.952,54.519 
	114.906,53.875 113.217,55.194 113.197,53.05 111.42,51.851 "/>
</svg>
