<?xml version="1.0" encoding="utf-8"?>
<!-- Generator: Adobe Illustrator 16.0.0, SVG Export Plug-In . SVG Version: 6.00 Build 0)  -->
<!DOCTYPE svg PUBLIC "-//W3C//DTD SVG 1.1//EN" "http://www.w3.org/Graphics/SVG/1.1/DTD/svg11.dtd">
<svg version="1.1" id="Layer_1" xmlns="http://www.w3.org/2000/svg" xmlns:xlink="http://www.w3.org/1999/xlink" x="0px" y="0px"
	 width="16.625px" height="9.833px" viewBox="-4.463 0.393 16.625 9.833" enable-background="new -4.463 0.393 16.625 9.833"
	 xml:space="preserve">
<g opacity="0.5">
	<defs>
		<rect id="SVGID_1_" x="-4.357" y="0.643" opacity="0.5" width="15.926" height="9.333"/>
	</defs>
	<clipPath id="SVGID_2_">
		<use xlink:href="#SVGID_1_"  overflow="visible"/>
	</clipPath>
	<path clip-path="url(#SVGID_2_)" d="M11.119,4.586C10.95,4.387,10.77,4.2,10.598,4.03C9.6,3.045,8.527,2.223,7.339,1.61
		C6.49,1.171,5.658,0.883,4.853,0.738C4.366,0.651,3.919,0.627,3.526,0.627c-0.411,0-0.865,0.021-1.351,0.111
		C1.36,0.887,0.525,1.177-0.314,1.61c-1.153,0.593-2.233,1.41-3.256,2.42c-0.198,0.195-0.37,0.375-0.522,0.556
		c-0.352,0.418-0.352,0.967,0,1.383c0.417,0.499,0.977,1.017,1.675,1.573c1.491,1.187,2.949,1.941,4.379,2.252
		c0.504,0.106,1.027,0.153,1.565,0.153c0.521,0,1.036-0.047,1.541-0.153C6.511,9.482,7.973,8.734,9.46,7.543
		c0.746-0.596,1.29-1.126,1.659-1.573C11.476,5.543,11.479,5.012,11.119,4.586L11.119,4.586z M10.068,5.353
		C9.71,5.792,9.216,6.245,8.604,6.736c-1.284,1.024-2.547,1.689-3.8,1.952c-0.464,0.097-0.889,0.13-1.279,0.13H3.502
		c-0.4,0-0.816-0.037-1.262-0.13C1,8.426-0.273,7.775-1.577,6.736c-0.616-0.491-1.099-0.951-1.448-1.384
		c-0.058-0.04-0.058-0.092,0-0.146c0.04-0.058,0.11-0.142,0.211-0.245c0.104-0.107,0.18-0.188,0.22-0.237
		c0.944-0.927,1.909-1.626,2.88-2.115C1.064,2.219,1.769,1.96,2.403,1.853C2.768,1.79,3.144,1.755,3.525,1.755
		c0.367,0,0.732,0.03,1.115,0.098c0.643,0.111,1.348,0.369,2.117,0.756c0.989,0.499,1.943,1.197,2.864,2.115
		c0.21,0.213,0.361,0.373,0.446,0.482C10.112,5.259,10.11,5.313,10.068,5.353L10.068,5.353z M10.4,5.355"/>
</g>
<path opacity="0.5" d="M3.526,2.277c-0.828,0-1.548,0.29-2.138,0.88c-0.59,0.59-0.88,1.3-0.88,2.128c0,0.829,0.289,1.536,0.88,2.123
	C1.976,7.991,2.698,8.28,3.526,8.28c0.83,0,1.531-0.291,2.113-0.871c0.591-0.592,0.88-1.294,0.88-2.123
	c0-0.829-0.291-1.537-0.88-2.128C5.055,2.57,4.356,2.277,3.526,2.277L3.526,2.277z M3.997,5.766
	C3.863,5.897,3.705,5.963,3.518,5.963c-0.19,0-0.352-0.067-0.485-0.201C2.899,5.629,2.832,5.468,2.832,5.283
	c0-0.189,0.067-0.348,0.201-0.481c0.133-0.133,0.295-0.201,0.485-0.201c0.189,0,0.348,0.069,0.479,0.201
	c0.132,0.134,0.198,0.292,0.198,0.481C4.194,5.471,4.129,5.632,3.997,5.766L3.997,5.766z M4.972,6.741"/>
</svg>
