<?xml version="1.0" encoding="utf-8"?>
<!-- Generator: Adobe Illustrator 16.0.0, SVG Export Plug-In . SVG Version: 6.00 Build 0)  -->
<!DOCTYPE svg PUBLIC "-//W3C//DTD SVG 1.1//EN" "http://www.w3.org/Graphics/SVG/1.1/DTD/svg11.dtd">
<svg version="1.1" id="Layer_1" xmlns="http://www.w3.org/2000/svg" xmlns:xlink="http://www.w3.org/1999/xlink" x="0px" y="0px"
	 width="147.499px" height="147.499px" viewBox="0 0 147.499 147.499" enable-background="new 0 0 147.499 147.499"
	 xml:space="preserve">
<rect y="0.334" fill="#E2E2E2" width="147.499" height="147.165"/>
<path fill="#010101" d="M141.645,147.999c-0.932-6.553-6.361-27.09-6.361-27.09c-0.787-1.911-2.474-2.811-2.474-2.811
	l-41.825-11.356l-1.461-14.616c5.509-5.847,5.396-12.817,5.396-12.817c2.249,1.687,2.924-1.461,2.924-1.461
	c0.787-1.8,1.399-7.871,1.399-7.871c1.511-10.006-2.748-6.746-2.748-6.746l0.414-3.675c4.16-7.083,1.947-15.664,1.947-15.664
	c0.562-11.243-6.972-11.805-6.972-11.805c3.373-3.261,2.924-7.421,2.924-7.421c-3.823,4.16-10.232,0.787-10.232,0.787
	c-25.634-8.208-28.67,6.634-28.67,6.634c-14.504,1.911-7.533,26.422-7.533,26.422l0.787,1.574l0.562,2.923
	c-4.497-3.598-2.249,8.658-2.249,8.658l0.675,4.159c1.124,5.621,3.036,3.485,3.036,3.485c2.361,11.693,5.734,13.605,5.734,13.605
	l-0.562,14.278l-40.027,11.355c-5.381,1.035-10.572,26.928-11.363,29.451H141.645z"/>
</svg>
